<svg width="44" height="44" viewBox="0 0 44 44" fill="none" xmlns="http://www.w3.org/2000/svg">
<g filter="url(#filter0_b_0_1)">
<rect width="44" height="44" rx="6" fill="black" fill-opacity="0.7"/>
</g>
<path d="M12 8H6C5.44772 8 5 8.44772 5 9V15C5 15.5523 5.44772 16 6 16C6.55228 16 7 15.5523 7 15V10H12C12.5523 10 13 9.55228 13 9C13 8.44772 12.5523 8 12 8Z" fill="white"/>
<path d="M32 8H38C38.5523 8 39 8.44772 39 9V15C39 15.5523 38.5523 16 38 16C37.4477 16 37 15.5523 37 15V10H32C31.4477 10 31 9.55228 31 9C31 8.44772 31.4477 8 32 8Z" fill="white"/>
<path d="M12 36H6C5.44772 36 5 35.5523 5 35V29C5 28.4477 5.44772 28 6 28C6.55228 28 7 28.4477 7 29V34H12C12.5523 34 13 34.4477 13 35C13 35.5523 12.5523 36 12 36Z" fill="white"/>
<path d="M32 36H38C38.5523 36 39 35.5523 39 35V29C39 28.4477 38.5523 28 38 28C37.4477 28 37 28.4477 37 29V34H32C31.4477 34 31 34.4477 31 35C31 35.5523 31.4477 36 32 36Z" fill="white"/>
<rect x="9" y="12" width="1.92593" height="20" fill="white"/>
<rect x="29.2222" y="12" width="1.92593" height="20" fill="white"/>
<rect x="16.7037" y="12" width="1.92593" height="20" fill="white"/>
<rect x="25.3704" y="12" width="1.92593" height="20" fill="white"/>
<rect x="11.8889" y="12" width="0.962963" height="20" fill="white"/>
<rect x="32.1111" y="12" width="0.962963" height="20" fill="white"/>
<rect x="20.5555" y="12" width="0.962963" height="20" fill="white"/>
<rect x="13.8148" y="12" width="0.962963" height="20" fill="white"/>
<rect x="34.037" y="12" width="0.962963" height="20" fill="white"/>
<rect x="22.4815" y="12" width="0.962963" height="20" fill="white"/>
<defs>
<filter id="filter0_b_0_1" x="-20" y="-20" width="84" height="84" filterUnits="userSpaceOnUse" color-interpolation-filters="sRGB">
<feFlood flood-opacity="0" result="BackgroundImageFix"/>
<feGaussianBlur in="BackgroundImage" stdDeviation="10"/>
<feComposite in2="SourceAlpha" operator="in" result="effect1_backgroundBlur_0_1"/>
<feBlend mode="normal" in="SourceGraphic" in2="effect1_backgroundBlur_0_1" result="shape"/>
</filter>
</defs>
</svg>
